…
``` r
#Kinematics

#Calculate the average angular velocity per-animal averages
average_per_animal_jumpLV <- data %>%
  group_by(Animal, JH) %>%
  summarize(animal_jump_LV = mean(`LV`, na.rm = TRUE), .groups = "drop")

print(average_per_animal_jumpLV)
```

    ## # A tibble: 21 × 3
    ##    Animal JH    animal_jump_LV
    ##    <chr>  <fct>          <dbl>
    ##  1 A1     50              1.23
    ##  2 A1     75              1.60
    ##  3 A1     100             1.91
    ##  4 A4     50              1.30
    ##  5 A4     75              1.80
    ##  6 A4     100             1.56
    ##  7 A5     50              1.32
    ##  8 A5     75              1.25
    ##  9 A5     100             1.66
    ## 10 A6     50              1.52
    ## # ℹ 11 more rows
…
``` r
#Angular velocity

#Calculate the average angular velocity per-animal averages
average_per_animal_jumpAV <- data %>%
  group_by(Animal, JH) %>%
  summarize(animal_jump_AV = mean(`AV`, na.rm = TRUE), .groups = "drop")

print(average_per_animal_jumpAV)
```

    ## # A tibble: 21 × 3
    ##    Animal JH    animal_jump_AV
    ##    <chr>  <fct>          <dbl>
    ##  1 A1     50              48.8
    ##  2 A1     75              35.8
    ##  3 A1     100             31.7
    ##  4 A4     50              45.1
    ##  5 A4     75              46.3
    ##  6 A4     100             28.0
    ##  7 A5     50              47.7
    ##  8 A5     75              29.9
    ##  9 A5     100             33.5
    ## 10 A6     50              28.5
    ## # ℹ 11 more rows
…
``` r
#Energetics

#Calculate the mean of RE_KE per animal and jump height
average_per_animal_jumpRE.KE <- data %>%
  group_by(Animal, JH) %>%
  summarize(animal_jump_RE.KE = mean(RE.KE, na.rm = TRUE), .groups = "drop")
print(average_per_animal_jumpRE.KE)
```

    ## # A tibble: 21 × 3
    ##    Animal JH    animal_jump_RE.KE
    ##    <chr>  <fct>             <dbl>
    ##  1 A1     50                3.03 
    ##  2 A1     75                0.945
    ##  3 A1     100               0.504
    ##  4 A4     50                1.75 
    ##  5 A4     75                0.916
    ##  6 A4     100               0.449
    ##  7 A5     50                2.89 
    ##  8 A5     75                1.20 
    ##  9 A5     100               0.843
    ## 10 A6     50                0.987
    ## # ℹ 11 more rows
…
    ## `summarise()` has grouped output by 'Animal'. You can override using the
    ## `.groups` argument.

``` r
print(data3)
```

    ## # A tibble: 21 × 3
    ## # Groups:   Animal [7]
    ##    Animal JH    Knee_angle
    ##    <chr>  <fct>      <dbl>
    ##  1 A1     50          124.
    ##  2 A1     75          135.
    ##  3 A1     100         143.
    ##  4 A4     50          130.
    ##  5 A4     75          133.
    ##  6 A4     100         141.
    ##  7 A5     50          126.
    ##  8 A5     75          121.
    ##  9 A5     100         137.
    ## 10 A6     50          135.
    ## # ℹ 11 more rows
…
